…
``` r
# install.packages("devtools")
devtools::install_github("mglev1n/locusplotr")
```

## Usage

Start with a dataframe containing genome wide association study summary
statistics at a locus of interest

``` r
library(locusplotr)

fto_locus_df
#> # A tibble: 19,119 × 9
#>    chromosome position rsid    effect_allele other_allele    eaf  effect std_err
#>         <dbl>    <dbl> <chr>   <chr>         <chr>         <dbl>   <dbl>   <dbl>
#>  1         16 53532568 rs1503… A             C            0.996  -0.279   0.196 
#>  2         16 54016452 rs1722… A             G            0.909  -0.0269  0.0122
#>  3         16 53710931 rs1454… A             G            0.982  -0.0212  0.104 
#>  4         16 54069480 rs3717… T             C            0.001  -1.38    1.04  
#>  5         16 53371872 rs5337… T             C            0.0019  0.0681  0.508 
#>  6         16 53838423 rs1162… T             C            0.0221  0.0116  0.0985
#>  7         16 53610642 rs1131… T             C            0.149   0.0364  0.0099
#>  8         16 53494581 rs5350… A             G            0.997   0.264   0.170 
#>  9         16 54248221 rs5576… A             T            0.0476 -0.0527  0.0709
#> 10         16 53549981 <NA>    A             G            0.0004  1.50    0.518 
#> # … with 19,109 more rows, and 1 more variable: p_value <dbl>
```
…
